{
  "routes": [
    {
      "method": "GET",
      "path": "/reader-borrows-books",
      "handler": "reader-borrows-book.find",
      "config": {
        "policies": []
      }
    },
    {
      "method": "GET",
      "path": "/reader-borrows-books/count",
      "handler": "reader-borrows-book.count",
      "config": {
        "policies": []
      }
    },
    {
      "method": "GET",
      "path": "/reader-borrows-books/:id",
      "handler": "reader-borrows-book.findOne",
      "config": {
        "policies": []
      }
    },
    {
      "method": "POST",
      "path": "/reader-borrows-books",
      "handler": "reader-borrows-book.create",
      "config": {
        "policies": []
      }
    },
    {
      "method": "PUT",
      "path": "/reader-borrows-books/:id",
      "handler": "reader-borrows-book.update",
      "config": {
        "policies": []
      }
    },
    {
      "method": "DELETE",
      "path": "/reader-borrows-books/:id",
      "handler": "reader-borrows-book.delete",
      "config": {
        "policies": []
      }
    }
  ]
}
